…
```r
data2$day <- wday(ymd(data2$date),label=TRUE)

# data2$is_wknd <- ifelse(data2$day=)
data2$wknd <- ifelse(data2$day == "Sat"|data2$day=="Sun","weekend","weekday")

data2_by_int_wday <- data2 %>% filter(wknd=="weekday") %>% group_by(interval) %>% summarise(mean(steps))
data2_by_int_wknd <- data2 %>% filter(wknd=="weekend") %>% group_by(interval) %>% summarise(mean(steps))

data2_by_int_wday
```

```
## # A tibble: 288 x 2
##    interval `mean(steps)`
##       <int>         <dbl>
##  1        0        2.25  
##  2        5        0.445 
##  3       10        0.173 
##  4       15        0.198 
##  5       20        0.0990
##  6       25        1.59  
##  7       30        0.693 
##  8       35        1.14  
##  9       40        0     
## 10       45        1.80  
## # ... with 278 more rows
```

```r
data2_by_int_wknd
```

```
## # A tibble: 288 x 2
##    interval `mean(steps)`
##       <int>         <dbl>
##  1        0       0.215  
##  2        5       0.0425 
##  3       10       0.0165 
##  4       15       0.0189 
##  5       20       0.00943
##  6       25       3.51   
##  7       30       0.0660 
##  8       35       0.108  
##  9       40       0      
## 10       45       0.559  
## # ... with 278 more rows
```
…
